## Title: Dark Template
## Notes: An example addon.
## Interface: 80100
## LoadOnDemand: 0
## DefaultState: enabled
## Dependencies: dark_addon

RexArmsWar.lua
RexFuryWar.lua
RexBasicElemental.lua
RexBasicAssassination.lua
RexVengDH.lua
RexHavDH.lua